<svg xmlns="http://www.w3.org/2000/svg" width="58" height="43" viewBox="0 0 58 43">
  <g id="Group_10" data-name="Group 10" transform="translate(-187 -343)">
    <g id="Rectangle_17" data-name="Rectangle 17" transform="translate(204 359)" fill="none" stroke="#000" stroke-width="2">
      <rect width="41" height="11" rx="5" stroke="none"/>
      <rect x="1" y="1" width="39" height="9" rx="4" fill="none"/>
    </g>
    <g id="Rectangle_22" data-name="Rectangle 22" transform="translate(204 375)" fill="none" stroke="#000" stroke-width="2">
      <rect width="41" height="11" rx="5" stroke="none"/>
      <rect x="1" y="1" width="39" height="9" rx="4" fill="none"/>
    </g>
    <g id="Rectangle_20" data-name="Rectangle 20" transform="translate(204 343)" fill="none" stroke="#000" stroke-width="2">
      <rect width="41" height="11" rx="5" stroke="none"/>
      <rect x="1" y="1" width="39" height="9" rx="4" fill="none"/>
    </g>
    <g id="Rectangle_15" data-name="Rectangle 15" transform="translate(187 359)" fill="none" stroke="#000" stroke-width="2">
      <rect width="13" height="11" rx="5" stroke="none"/>
      <rect x="1" y="1" width="11" height="9" rx="4" fill="none"/>
    </g>
    <g id="Rectangle_23" data-name="Rectangle 23" transform="translate(187 375)" fill="none" stroke="#000" stroke-width="2">
      <rect width="13" height="11" rx="5" stroke="none"/>
      <rect x="1" y="1" width="11" height="9" rx="4" fill="none"/>
    </g>
    <g id="Rectangle_21" data-name="Rectangle 21" transform="translate(187 343)" fill="none" stroke="#000" stroke-width="2">
      <rect width="13" height="11" rx="5" stroke="none"/>
      <rect x="1" y="1" width="11" height="9" rx="4" fill="none"/>
    </g>
  </g>
</svg>
