<svg xmlns="http://www.w3.org/2000/svg" width="57.551" height="50.233" viewBox="0 0 57.551 50.233">
  <g id="Group_20" data-name="Group 20" transform="translate(-285.111 -164.067)">
    <path id="Path_14" data-name="Path 14" d="M386.189,166.067h35.356l10.116,10.116L403.907,214.3l-27.8-38.117Z" transform="translate(-90 -1)" fill="none" stroke="#000" stroke-linecap="round" stroke-linejoin="round" stroke-width="2"/>
    <path id="Path_15" data-name="Path 15" d="M286.111,172h55.077" transform="translate(0 3.513)" fill="none" stroke="#000" stroke-width="2"/>
    <path id="Path_16" data-name="Path 16" d="M304.546,210.054V172.267" transform="translate(9.34 3.246)" fill="none" stroke="#000" stroke-width="2"/>
  </g>
</svg>
