<?xml version="1.0" encoding="utf-8"?>
<!-- Generator: Adobe Illustrator 19.1.1, SVG Export Plug-In . SVG Version: 6.00 Build 0)  -->
<svg version="1.1" id="Layer_1" xmlns="http://www.w3.org/2000/svg" xmlns:xlink="http://www.w3.org/1999/xlink" x="0px" y="0px"
	 viewBox="-49 141 512 512" style="enable-background:new -49 141 512 512;" xml:space="preserve">
<style type="text/css">
	.st0{fill:#7DBFF1;}
</style>
<g>
	<g>
		<path class="st0" d="M451.7,340.1L215.6,162.4c-4.6-3.4-10.7-3.4-15.3,0l-236,177.7c-5.8,4.3-7,12.7-2.8,18.6s12.3,7.2,18.1,2.9
			l228.4-172l228.4,171.9c2.3,1.7,5,2.6,7.6,2.6c4,0,7.9-1.9,10.5-5.4C458.7,352.7,457.5,344.4,451.7,340.1z"/>
	</g>
</g>
<g>
	<g>
		<path class="st0" d="M394.2,364.5c-7.3,0-13.3,6-13.3,13.3v236.7H274.5V474c0-36.7-29.8-66.5-66.5-66.5s-66.5,29.8-66.5,66.5
			v140.6H35.1V377.8c0-7.3-6-13.3-13.3-13.3s-13.3,6-13.3,13.3v250.1c0,7.3,6,13.3,13.3,13.3h133c7,0,12.7-5.4,13.3-12.3
			c0-0.3,0.1-0.7,0.1-1V474c0-22,17.9-39.9,39.9-39.9S248,452,248,474v153.9c0,0.4,0,0.7,0.1,1c0.5,6.9,6.3,12.3,13.3,12.3h133
			c7.3,0,13.3-6,13.3-13.3V377.8C407.5,370.5,401.6,364.5,394.2,364.5z"/>
	</g>
</g>
</svg>
