<?xml version="1.0" encoding="utf-8"?>
<!-- Generator: Adobe Illustrator 19.1.1, SVG Export Plug-In . SVG Version: 6.00 Build 0)  -->
<svg version="1.1" id="Capa_1" xmlns="http://www.w3.org/2000/svg" xmlns:xlink="http://www.w3.org/1999/xlink" x="0px" y="0px"
	 viewBox="-69 161.8 471.2 471.2" style="enable-background:new -69 161.8 471.2 471.2;" xml:space="preserve">
<style type="text/css">
	.st0{fill:#7DBFF1;}
</style>
<g>
	<g>
		<path class="st0" d="M141.4,606H18.5C-54,606-42,617.8-42,545.5V249.3c0-73.5-13-60.5,60.5-60.5h124.9c7.5,0,13.5-6,13.5-13.5
			s-6-13.5-13.5-13.5H18.5c-87.5,0-87.5,0-87.5,87.5v296.2c0,87.5,0,87.5,87.5,87.5h122.9c7.5,0,13.5-6,13.5-13.5
			S148.7,606,141.4,606z"/>
		<path class="st0" d="M363.7,387.9l-85.8-85.8c-5.3-5.3-13.8-5.3-19.1,0s-5.3,13.8,0,19.1l62.8,62.8H47.8c-7.5,0-13.5,6-13.5,13.5
			s6,13.5,13.5,13.5h273.9l-62.8,62.8c-5.3,5.3-5.3,13.8,0,19.1c2.6,2.6,6.1,4,9.5,4s6.9-1.3,9.5-4l85.8-85.8
			C369,401.7,369,393.1,363.7,387.9z"/>
	</g>
</g>
</svg>
